Fri Sep 24 07:14:18 JST 2010
##### Pieces 6
##### Status found=0 pieces=6 time=00:00:00
A.A.*............*.....
A.A.***.*.*.***.***.*.*
A.A.*.*.*.*.*.*..*..*.*
AAA.***.***.*.*..*..***

##### Status found=0 pieces=6 time=00:00:02
*.*.A............*.....
*.*.AAA.*.*.***.***.*.*
*.*.A.A.*.*.*.*..*..*.*
***.AAA.***.*.*..*..***

##### Pieces 7
##### Status found=0 pieces=7 time=00:00:02
A.A.*............*.....
A.A.***.*.*.***.***.*.*
A.A.*.*.*.*.*.*..*..*.*
AAA.***.***.*.*..*..***

##### Status found=0 pieces=7 time=00:00:20
*.*.A............*.....
*.*.AAA.*.*.***.***.*.*
*.*.A.A.*.*.*.*..*..*.*
***.AAA.***.*.*..*..***

##### Pieces 8
##### Status found=0 pieces=8 time=00:00:24
A.A.*............*.....
A.A.***.*.*.***.***.*.*
A.A.*.*.*.*.*.*..*..*.*
AAA.***.***.*.*..*..***

##### Status found=0 pieces=8 time=00:01:37
*.*.A............*.....
*.*.AAA.*.*.***.***.*.*
*.*.A.A.*.*.*.*..*..*.*
***.AAA.***.*.*..*..***

##### Status found=0 pieces=8 time=00:01:52
A.*.*............*.....
A.A.***.*.*.***.***.*.*
A.A.*.*.*.*.*.*..*..*.*
AAA.***.***.*.*..*..***

##### Status found=0 pieces=8 time=00:02:52
*.A.*............*.....
A.A.***.*.*.***.***.*.*
A.A.*.*.*.*.*.*..*..*.*
AAA.***.***.*.*..*..***

##### Status found=0 pieces=8 time=00:03:52
*.*.A............*.....
*.*.AAA.*.*.***.***.*.*
*.*.A.A.*.*.*.*..*..*.*
***.AA*.***.*.*..*..***

##### Status found=0 pieces=8 time=00:04:00
*.*.A............*.....
*.*.AAA.*.*.***.***.*.*
*.*.A.A.*.*.*.*..*..*.*
***.A*A.***.*.*..*..***

##### Status found=0 pieces=8 time=00:04:14
*.*.A............*.....
*.*.AAA.*.*.***.***.*.*
*.*.A.A.*.*.*.*..*..*.*
***.*AA.***.*.*..*..***

##### Status found=0 pieces=8 time=00:04:21
*.*.A............*.....
*.*.AAA.*.*.***.***.*.*
*.*.A.*.*.*.*.*..*..*.*
***.AAA.***.*.*..*..***

##### Status found=0 pieces=8 time=00:04:41
*.*.A............*.....
*.*.AAA.*.*.***.***.*.*
*.*.*.A.*.*.*.*..*..*.*
***.AAA.***.*.*..*..***

##### Status found=0 pieces=8 time=00:04:55
*.*.A............*.....
*.*.AA*.*.*.***.***.*.*
*.*.A.A.*.*.*.*..*..*.*
***.AAA.***.*.*..*..***

##### Status found=0 pieces=8 time=00:05:05
*.*.A............*.....
*.*.A*A.*.*.***.***.*.*
*.*.A.A.*.*.*.*..*..*.*
***.AAA.***.*.*..*..***

##### Status found=0 pieces=8 time=00:05:27
*.*.*............*.....
*.*.AAA.*.*.***.***.*.*
*.*.A.A.*.*.*.*..*..*.*
***.AAA.***.*.*..*..***

##### Status found=0 pieces=8 time=00:05:31
A.*.*............*.....
A.*.***.*.*.***.***.*.*
A.A.*.*.*.*.*.*..*..*.*
AAA.***.***.*.*..*..***

##### Status found=0 pieces=8 time=00:06:31
*.A.*............*.....
*.A.***.*.*.***.***.*.*
A.A.*.*.*.*.*.*..*..*.*
AAA.***.***.*.*..*..***

##### Status found=0 pieces=8 time=00:07:33
*.*.A............*.....
*.*.AAA.*.*.***.***.*.*
*.*.A.A.*.*.*.*..*..*.*
***.A**.***.*.*..*..***

##### Status found=0 pieces=8 time=00:07:41
*.*.A............*.....
*.*.AAA.*.*.***.***.*.*
*.*.A.A.*.*.*.*..*..*.*
***.**A.***.*.*..*..***

##### Status found=0 pieces=8 time=00:07:49
*.*.A............*.....
*.*.AAA.*.*.***.***.*.*
*.*.A.*.*.*.*.*..*..*.*
***.AA*.***.*.*..*..***

##### Status found=0 pieces=8 time=00:08:00
*.*.A............*.....
*.*.AAA.*.*.***.***.*.*
*.*.*.A.*.*.*.*..*..*.*
***.*AA.***.*.*..*..***

##### Status found=0 pieces=8 time=00:08:06
*.*.A............*.....
*.*.AA*.*.*.***.***.*.*
*.*.A.*.*.*.*.*..*..*.*
***.AAA.***.*.*..*..***

##### Status found=0 pieces=8 time=00:08:21
*.*.A............*.....
*.*.A**.*.*.***.***.*.*
*.*.A.A.*.*.*.*..*..*.*
***.AAA.***.*.*..*..***

##### Status found=0 pieces=8 time=00:08:35
*.*.*............*.....
A.A.***.*.*.***.***.*.*
A.A.*.*.*.*.*.*..*..*.*
AAA.***.***.*.*..*..***

##### Status found=0 pieces=8 time=00:08:35
*.*.*............*.....
*.*.AAA.*.*.***.***.*.*
*.*.A.A.*.*.*.*..*..*.*
***.AA*.***.*.*..*..***

##### Status found=0 pieces=8 time=00:08:35
*.*.*............*.....
*.*.AAA.*.*.***.***.*.*
*.*.A.A.*.*.*.*..*..*.*
***.A*A.***.*.*..*..***

##### Status found=0 pieces=8 time=00:08:35
*.*.*............*.....
*.*.*AA.*.*.***.***.*.*
*.*.A.A.*.*.*.*..*..*.*
***.AAA.***.*.*..*..***

##### Status found=0 pieces=8 time=00:08:45
*.*.*............*.....
*.*.***.A.A.***.***.*.*
*.*.*.*.A.A.*.*..*..*.*
***.***.AAA.*.*..*..***

##### Solution 1 pieces=8 time=00:08:45
G.E.F............D.....
G.E.FFF.A.A.BBB.DDD.C.C
G.E.F.H.A.A.B.B..D..C.C
GEE.HHH.AAA.B.B..D..CCC

AAABBBCCC
AHABDBCFC
AHABDBCFC
EHHDDDFFF
EEEEDGGGG

##### Solution 2 pieces=8 time=00:08:45
G.E.F............D.....
G.E.FFF.A.A.BBB.DDD.C.C
G.E.F.H.A.A.B.B..D..C.C
GEE.HHH.AAA.B.B..D..CCC

AAABBBFFF
AHABDBCFC
AHABDBCFC
EHHDDDCCC
EEEEDGGGG

##### Solution 3 pieces=8 time=00:08:45
G.E.F............D.....
G.E.FFF.A.A.BBB.DDD.C.C
G.E.F.H.A.A.B.B..D..C.C
GEE.HHH.AAA.B.B..D..CCC

AAACCCBBB
AHACDCBFB
AHACDCBFB
EHHDDDFFF
EEEEDGGGG

##### Solution 4 pieces=8 time=00:08:46
G.E.F............D.....
G.E.FFF.A.A.BBB.DDD.C.C
G.E.F.H.A.A.B.B..D..C.C
GEE.HHH.AAA.B.B..D..CCC

AAACCCFFF
AHACDCBFB
AHACDCBFB
EHHDDDBBB
EEEEDGGGG

##### Solution 5 pieces=8 time=00:08:52
G.E.F............D.....
G.E.FFF.A.A.BBB.DDD.C.C
G.E.F.H.A.A.B.B..D..C.C
GEE.HHH.AAA.B.B..D..CCC

BBBAAACCC
BHBADACFC
BHBADACFC
EHHDDDFFF
EEEEDGGGG

##### Solution 6 pieces=8 time=00:08:52
G.E.F............D.....
G.E.FFF.A.A.BBB.DDD.C.C
G.E.F.H.A.A.B.B..D..C.C
GEE.HHH.AAA.B.B..D..CCC

BBBAAAFFF
BHBADACFC
BHBADACFC
EHHDDDCCC
EEEEDGGGG

##### Solution 7 pieces=8 time=00:08:52
G.E.F............D.....
G.E.FFF.A.A.BBB.DDD.C.C
G.E.F.H.A.A.B.B..D..C.C
GEE.HHH.AAA.B.B..D..CCC

CCCAAABBB
CHCADABFB
CHCADABFB
EHHDDDFFF
EEEEDGGGG

##### Solution 8 pieces=8 time=00:08:52
G.E.F............D.....
G.E.FFF.A.A.BBB.DDD.C.C
G.E.F.H.A.A.B.B..D..C.C
GEE.HHH.AAA.B.B..D..CCC

CCCAAAFFF
CHCADABFB
CHCADABFB
EHHDDDBBB
EEEEDGGGG

##### Solution 9 pieces=8 time=00:08:56
G.E.F............D.....
G.E.FFF.A.A.BBB.DDD.C.C
G.E.F.H.A.A.B.B..D..C.C
GEE.HHH.AAA.B.B..D..CCC

BBBCCCAAA
BHBCDCAFA
BHBCDCAFA
EHHDDDFFF
EEEEDGGGG

##### Solution 10 pieces=8 time=00:08:56
G.E.F............D.....
G.E.FFF.A.A.BBB.DDD.C.C
G.E.F.H.A.A.B.B..D..C.C
GEE.HHH.AAA.B.B..D..CCC

CCCBBBAAA
CHCBDBAFA
CHCBDBAFA
EHHDDDFFF
EEEEDGGGG

##### Solution 11 pieces=8 time=00:09:01
G.E.F............D.....
G.E.FFF.A.A.BBB.DDD.C.C
G.E.F.H.A.A.B.B..D..C.C
GEE.HHH.AAA.B.B..D..CCC

GGGGDEEEE
AAADDDHHE
AFABDBCHC
AFABDBCHC
FFFBBBCCC

##### Solution 12 pieces=8 time=00:09:01
G.E.F............D.....
G.E.FFF.A.A.BBB.DDD.C.C
G.E.F.H.A.A.B.B..D..C.C
GEE.HHH.AAA.B.B..D..CCC

GGGGDEEEE
AAADDDHHE
AFACDCBHB
AFACDCBHB
FFFCCCBBB

##### Solution 13 pieces=8 time=00:09:14
G.E.F............D.....
G.E.FFF.A.A.BBB.DDD.C.C
G.E.F.H.A.A.B.B..D..C.C
GEE.HHH.AAA.B.B..D..CCC

BBBCCCFFF
BHBCDCAFA
BHBCDCAFA
EHHDDDAAA
EEEEDGGGG

##### Solution 14 pieces=8 time=00:09:14
G.E.F............D.....
G.E.FFF.A.A.BBB.DDD.C.C
G.E.F.H.A.A.B.B..D..C.C
GEE.HHH.AAA.B.B..D..CCC

CCCBBBFFF
CHCBDBAFA
CHCBDBAFA
EHHDDDAAA
EEEEDGGGG

##### Solution 15 pieces=8 time=00:09:17
G.E.F............D.....
G.E.FFF.A.A.BBB.DDD.C.C
G.E.F.H.A.A.B.B..D..C.C
GEE.HHH.AAA.B.B..D..CCC

GGGGDEEEE
FFFDDDHHE
AFABDBCHC
AFABDBCHC
AAABBBCCC

##### Solution 16 pieces=8 time=00:09:17
G.E.F............D.....
G.E.FFF.A.A.BBB.DDD.C.C
G.E.F.H.A.A.B.B..D..C.C
GEE.HHH.AAA.B.B..D..CCC

GGGGDEEEE
FFFDDDHHE
AFACDCBHB
AFACDCBHB
AAACCCBBB

##### Solution 17 pieces=8 time=00:09:19
G.E.F............D.....
G.E.FFF.A.A.BBB.DDD.C.C
G.E.F.H.A.A.B.B..D..C.C
GEE.HHH.AAA.B.B..D..CCC

GGGGDEEEE
BBBDDDHHE
BFBADACHC
BFBADACHC
FFFAAACCC

##### Solution 18 pieces=8 time=00:09:20
G.E.F............D.....
G.E.FFF.A.A.BBB.DDD.C.C
G.E.F.H.A.A.B.B..D..C.C
GEE.HHH.AAA.B.B..D..CCC

GGGGDEEEE
FFFDDDHHE
BFBADACHC
BFBADACHC
BBBAAACCC

##### Solution 19 pieces=8 time=00:09:20
G.E.F............D.....
G.E.FFF.A.A.BBB.DDD.C.C
G.E.F.H.A.A.B.B..D..C.C
GEE.HHH.AAA.B.B..D..CCC

GGGGDEEEE
CCCDDDHHE
CFCADABHB
CFCADABHB
FFFAAABBB

##### Solution 20 pieces=8 time=00:09:20
G.E.F............D.....
G.E.FFF.A.A.BBB.DDD.C.C
G.E.F.H.A.A.B.B..D..C.C
GEE.HHH.AAA.B.B..D..CCC

GGGGDEEEE
FFFDDDHHE
CFCADABHB
CFCADABHB
CCCAAABBB

##### Solution 21 pieces=8 time=00:09:23
G.E.F............D.....
G.E.FFF.A.A.BBB.DDD.C.C
G.E.F.H.A.A.B.B..D..C.C
GEE.HHH.AAA.B.B..D..CCC

GGGGDEEEE
BBBDDDHHE
BFBCDCAHA
BFBCDCAHA
FFFCCCAAA

##### Solution 22 pieces=8 time=00:09:24
G.E.F............D.....
G.E.FFF.A.A.BBB.DDD.C.C
G.E.F.H.A.A.B.B..D..C.C
GEE.HHH.AAA.B.B..D..CCC

GGGGDEEEE
FFFDDDHHE
BFBCDCAHA
BFBCDCAHA
BBBCCCAAA

##### Solution 23 pieces=8 time=00:09:24
G.E.F............D.....
G.E.FFF.A.A.BBB.DDD.C.C
G.E.F.H.A.A.B.B..D..C.C
GEE.HHH.AAA.B.B..D..CCC

GGGGDEEEE
CCCDDDHHE
CFCBDBAHA
CFCBDBAHA
FFFBBBAAA

##### Solution 24 pieces=8 time=00:09:24
G.E.F............D.....
G.E.FFF.A.A.BBB.DDD.C.C
G.E.F.H.A.A.B.B..D..C.C
GEE.HHH.AAA.B.B..D..CCC

GGGGDEEEE
FFFDDDHHE
CFCBDBAHA
CFCBDBAHA
CCCBBBAAA

Fri Sep 24 07:23:42 JST 2010
